{
	"id": "e1def3e7-c75f-42e6-801a-6eeaaa2da207",
	"name": "surveyinapp",
	"values": [
		{
			"key": "SERVER_URL",
			"value": "http://localhost:3009",
			"enabled": true
		},
		{
			"key": "JWT_TOKEN",
			"value": "",
			"enabled": true
		},
		{
			"key": "EMAIL",
			"value": "simonpas323@gmail.com",
			"enabled": true
		},
		{
			"key": "PASSWORD",
			"value": "123",
			"enabled": true
		},
		{
			"key": "TEMP_RESET_PSW",
			"value": "",
			"enabled": true
		}
	],
	"_postman_variable_scope": "environment",
	"_postman_exported_at": "2019-07-04T10:42:10.647Z",
	"_postman_exported_using": "Postman/7.2.2"
}